…
What's up with the weird discontinuity where births are either above or below 4000?

    ## # A tibble: 312 x 13
    ##          Date CountyCode                 County GenderCode Gender
    ##        <date>      <int>                 <fctr>     <fctr> <fctr>
    ##  1 2003-01-01       6037 Los Angeles County, CA          F Female
    ##  2 2003-01-01       6037 Los Angeles County, CA          M   Male
    ##  3 2010-01-01       6037 Los Angeles County, CA          F Female
    ##  4 2010-01-01       6037 Los Angeles County, CA          M   Male
    ##  5 2003-02-01       6037 Los Angeles County, CA          F Female
    ##  6 2003-02-01       6037 Los Angeles County, CA          M   Male
    ##  7 2010-02-01       6037 Los Angeles County, CA          F Female
    ##  8 2010-02-01       6037 Los Angeles County, CA          M   Male
    ##  9 2003-03-01       6037 Los Angeles County, CA          F Female
    ## 10 2003-03-01       6037 Los Angeles County, CA          M   Male
    ## # ... with 302 more rows, and 8 more variables: MonthCode <int>,
    ## #   Month <fctr>, State <fctr>, Year <int>, AverageAgeofMother <dbl>,
    ## #   AverageBirthWeight <dbl>, Births <int>, Abbreviation <fctr>
…
